{
  "required": true,
  "package": "com.coolgi.badapple.mixin",
  "compatibilityLevel": "JAVA_8",
  "client": [
    "MixinDebugScreenOverlay"
  ],
  "mixins": [
  ],
  "injectors": {
    "defaultRequire": 1
  }
}